{
  "photos": {
    "page": 1,
    "pages": 1481,
    "perpage": 6,
    "total": "8883",
    "photo": [
      {
        "id": "50821899833",
        "owner": "48995830@N02",
        "secret": "8cc49eb217",
        "server": "65535",
        "farm": 66,
        "title": "Turksat Launch",
        "ispublic": 1,
        "isfriend": 0,
        "isfamily": 0,
        "url_s": "https:\/\/live.staticflickr.com\/65535\/50821899833_8cc49eb217_m.jpg",
        "height_s": 180,
        "width_s": 240,
        "url_o": "https:\/\/live.staticflickr.com\/65535\/50821899833_70a811fba0_o.jpg",
        "height_o": 1623,
        "width_o": 2164,
        "url_t": "https:\/\/live.staticflickr.com\/65535\/50821899833_8cc49eb217_t.jpg",
        "height_t": 75,
        "width_t": 100,
        "url_m": "https:\/\/live.staticflickr.com\/65535\/50821899833_8cc49eb217.jpg",
        "height_m": 375,
        "width_m": 500,
        "url_l": "https:\/\/live.staticflickr.com\/65535\/50821899833_8cc49eb217_b.jpg",
        "height_l": 768,
        "width_l": 1024
      },
      {
        "id": "50817409571",
        "owner": "79348313@N02",
        "secret": "6451699817",
        "server": "65535",
        "farm": 66,
        "title": "& if all else fails we'll jam one of these up their.......",
        "ispublic": 1,
        "isfriend": 0,
        "isfamily": 0,
        "url_s": "https:\/\/live.staticflickr.com\/65535\/50817409571_6451699817_m.jpg",
        "height_s": 198,
        "width_s": 240,
        "url_o": "https:\/\/live.staticflickr.com\/65535\/50817409571_d2a071a223_o.jpg",
        "height_o": 1463,
        "width_o": 1773,
        "url_t": "https:\/\/live.staticflickr.com\/65535\/50817409571_6451699817_t.jpg",
        "height_t": 83,
        "width_t": 100,
        "url_m": "https:\/\/live.staticflickr.com\/65535\/50817409571_6451699817.jpg",
        "height_m": 413,
        "width_m": 500,
        "url_l": "https:\/\/live.staticflickr.com\/65535\/50817409571_6451699817_b.jpg",
        "height_l": 845,
        "width_l": 1024
      },
      {
        "id": "50814082791",
        "owner": "65122927@N06",
        "secret": "dc7487222b",
        "server": "65535",
        "farm": 66,
        "title": "SpaceX Launch with Turksat 5A Satellite 1\/7\/2021",
        "ispublic": 1,
        "isfriend": 0,
        "isfamily": 0,
        "url_s": "https:\/\/live.staticflickr.com\/65535\/50814082791_dc7487222b_m.jpg",
        "height_s": 160,
        "width_s": 240,
        "url_t": "https:\/\/live.staticflickr.com\/65535\/50814082791_dc7487222b_t.jpg",
        "height_t": 67,
        "width_t": 100,
        "url_m": "https:\/\/live.staticflickr.com\/65535\/50814082791_dc7487222b.jpg",
        "height_m": 333,
        "width_m": 500,
        "url_l": "https:\/\/live.staticflickr.com\/65535\/50814082791_dc7487222b_b.jpg",
        "height_l": 683,
        "width_l": 1024
      },
      {
        "id": "50813000172",
        "owner": "88333829@N02",
        "secret": "77b6287745",
        "server": "65535",
        "farm": 66,
        "title": "SpaceX Starts 2021 Right!",
        "ispublic": 1,
        "isfriend": 0,
        "isfamily": 0,
        "url_s": "https:\/\/live.staticflickr.com\/65535\/50813000172_77b6287745_m.jpg",
        "height_s": 160,
        "width_s": 240,
        "url_t": "https:\/\/live.staticflickr.com\/65535\/50813000172_77b6287745_t.jpg",
        "height_t": 67,
        "width_t": 100,
        "url_m": "https:\/\/live.staticflickr.com\/65535\/50813000172_77b6287745.jpg",
        "height_m": 333,
        "width_m": 500,
        "url_l": "https:\/\/live.staticflickr.com\/65535\/50813000172_77b6287745_b.jpg",
        "height_l": 682,
        "width_l": 1024
      },
      {
        "id": "50812690907",
        "owner": "76093456@N04",
        "secret": "30d9c0fdcb",
        "server": "65535",
        "farm": 66,
        "title": "Turksat5A by SpaceX",
        "ispublic": 1,
        "isfriend": 0,
        "isfamily": 0,
        "url_s": "https:\/\/live.staticflickr.com\/65535\/50812690907_30d9c0fdcb_m.jpg",
        "height_s": 135,
        "width_s": 240,
        "url_t": "https:\/\/live.staticflickr.com\/65535\/50812690907_30d9c0fdcb_t.jpg",
        "height_t": 56,
        "width_t": 100,
        "url_m": "https:\/\/live.staticflickr.com\/65535\/50812690907_30d9c0fdcb.jpg",
        "height_m": 281,
        "width_m": 500,
        "url_l": "https:\/\/live.staticflickr.com\/65535\/50812690907_30d9c0fdcb_b.jpg",
        "height_l": 576,
        "width_l": 1024
      },
      {
        "id": "50772694521",
        "owner": "156103011@N05",
        "secret": "99b8522bf1",
        "server": "65535",
        "farm": 66,
        "title": "SpaceX CRS-21 Rollout",
        "ispublic": 1,
        "isfriend": 0,
        "isfamily": 0,
        "url_s": "https:\/\/live.staticflickr.com\/65535\/50772694521_99b8522bf1_m.jpg",
        "height_s": 160,
        "width_s": 240,
        "url_o": "https:\/\/live.staticflickr.com\/65535\/50772694521_25d581ce42_o.jpg",
        "height_o": 2000,
        "width_o": 3000,
        "url_t": "https:\/\/live.staticflickr.com\/65535\/50772694521_99b8522bf1_t.jpg",
        "height_t": 67,
        "width_t": 100,
        "url_m": "https:\/\/live.staticflickr.com\/65535\/50772694521_99b8522bf1.jpg",
        "height_m": 333,
        "width_m": 500,
        "url_l": "https:\/\/live.staticflickr.com\/65535\/50772694521_99b8522bf1_b.jpg",
        "height_l": 683,
        "width_l": 1024
      }
    ]
  },
  "stat": "ok"
}