{
  "photos": {
    "page": 1,
    "pages": 8864,
    "perpage": 1,
    "total": "8864",
    "photo": [
      {
        "id": "50718869598",
        "owner": "157354161@N02",
        "secret": "b2f2c029d8",
        "server": "65535",
        "farm": 66,
        "title": "A7403526-Edit",
        "ispublic": 1,
        "isfriend": 0,
        "isfamily": 0,
        "url_s": "https:\/\/live.staticflickr.com\/65535\/50718869598_b2f2c029d8_m.jpg",
        "height_s": 240,
        "width_s": 240,
        "url_o": "https:\/\/live.staticflickr.com\/65535\/50718869598_af9ed208b1_o.jpg",
        "height_o": 3250,
        "width_o": 3250,
        "url_t": "https:\/\/live.staticflickr.com\/65535\/50718869598_b2f2c029d8_t.jpg",
        "height_t": 100,
        "width_t": 100,
        "url_m": "https:\/\/live.staticflickr.com\/65535\/50718869598_b2f2c029d8.jpg",
        "height_m": 500,
        "width_m": 500,
        "url_l": "https:\/\/live.staticflickr.com\/65535\/50718869598_b2f2c029d8_b.jpg",
        "height_l": 1024,
        "width_l": 1024
      }
    ]
  },
  "stat": "ok"
}